<svg xmlns="http://www.w3.org/2000/svg" width="17" height="17" viewBox="0 0 17 17">
    <g fill="none" fill-rule="evenodd">
        <path stroke="#E2E2E2" d="M-12.5-8.993v33.986a2.498 2.498 0 0 0 2.495 2.507h88.01a2.505 2.505 0 0 0 2.495-2.507V-8.993a2.498 2.498 0 0 0-2.495-2.507h-88.01A2.505 2.505 0 0 0-12.5-8.993z"/>
        <path fill="#EC252D" d="M14.194 8.036c-.983-.716-1.259-2.087-1.259-2.087h.886c.255 1.49.878 2.087.878 2.087h-.505zm.49 2.401h-.751v2.795s.034.194-.314.605c-.326.385-1.08.313-1.08.313v-.248s.243-.043.41-.178c.169-.136.155-.395.155-.395v-2.892h-2.462v-.516h2.462v-.85l.829-.003v.853h.75v.516zm-3.162 1.948s-.328-1.335-.504-1.384h.704s.468.516.498 1.384h-.698zm-1.329 1.765h-.752v-3.215l.02-.018c-.222.12-.478.216-.779.274v-.378s.928-.235 1.184-1.725h.885s-.087.636-.558 1.219v3.843zm-1.899-3.877h-2.59v.789h1.9v.502c-.417.68-1.045 1.185-1.724 1.559.57.227 1.322.425 2.307.532v.473s-1.556-.01-3.034-.66c-1.429.59-2.835.688-2.835.688v-.473c.917-.1 1.644-.295 2.219-.529-.562-.331-1.077-.775-1.443-1.372l1.056-.004s.2.528 1.086 1.036c.983-.571 1.288-1.2 1.31-1.25h-3.8v-.502h2.116v-.789H2.299v-.449h2.563v-.647h.841v.647h2.591v.45zM3.184 5.95h.885S3.794 7.32 2.811 8.036h-.506s.623-.597.878-2.087zm-.818-2.532h2.518l-.006-.37h.837l.006.376H8.24v.443H2.354l.012-.449zM7.414 5.95c.255 1.49.878 2.087.878 2.087h-.505C6.804 7.32 6.529 5.95 6.529 5.95h.885zm-1.7-.315v1.543s.034.194-.314.605c-.327.385-1.08.313-1.08.313v-.443s.198.022.366-.113c.168-.136.198-.265.198-.265V5.633h-2.34V4.186h5.491v1.447H5.711h.002zm4.762.315s-.275 1.371-1.258 2.087h-.505s.622-.597.877-2.087h.886zM8.682 3.393h1.289l.155-.346h.826l-.156.346h3.88v.449h-4.082L9.986 5.19h1.354V4.182l.83-.004V5.19h2.252v.443H12.17v1.544s.035.194-.313.605c-.327.385-1.08.313-1.08.313v-.443s.198.022.366-.113c.168-.136.198-.265.198-.265V5.633H8.963v-.001h-.002l.807-1.79H8.682v-.45zM13.785.108H3.107A3.116 3.116 0 0 0 0 3.215v10.678A3.116 3.116 0 0 0 3.107 17h10.678a3.116 3.116 0 0 0 3.107-3.107V3.215A3.116 3.116 0 0 0 13.785.108z"/>
    </g>
</svg>
