<svg xmlns="http://www.w3.org/2000/svg" xmlns:xlink="http://www.w3.org/1999/xlink" width="17" height="15" viewBox="0 0 17 15">
    <defs>
        <path id="a" d="M0 .013h17.221V15H.001z"/>
    </defs>
    <g fill="none" fill-rule="evenodd">
        <mask id="b" fill="#fff">
            <use xlink:href="#a"/>
        </mask>
        <path fill="#22AB39" d="M6.263 9.493a.578.578 0 0 1-.759-.228l-.037-.082L3.899 5.79a.29.29 0 0 1-.027-.119c0-.156.128-.283.287-.283a.29.29 0 0 1 .171.056l1.85 1.3a.864.864 0 0 0 .765.086l8.7-3.82C14.084 1.199 11.516.014 8.61.014 3.855.013 0 3.182 0 7.091c0 2.133 1.159 4.052 2.974 5.35a.563.563 0 0 1 .211.641l-.388 1.428c-.018.067-.046.137-.046.207 0 .156.128.283.287.283a.327.327 0 0 0 .166-.053l1.885-1.073a.912.912 0 0 1 .457-.13c.088 0 .173.012.253.037.88.25 1.828.388 2.81.388 4.756 0 8.611-3.17 8.611-7.078 0-1.184-.355-2.3-.98-3.28L6.326 9.457l-.063.036z" mask="url(#b)"/>
    </g>
</svg>
