<svg width="33" height="25" viewBox="0 0 33 25" fill="none" xmlns="http://www.w3.org/2000/svg">
<path d="M1.1333 10.5333L11.2666 22.8L31 1.46667" stroke="white" stroke-width="2.13333" stroke-linecap="round"/>
</svg>
