<svg width="24" height="24" viewBox="0 0 24 24" fill="none" xmlns="http://www.w3.org/2000/svg">
<path fill-rule="evenodd" clip-rule="evenodd" d="M15.1523 10.6314L13.0739 8.95009L15.7456 8.85461C17.3996 8.7955 18.2954 8.546 18.7805 7.88546C18.8307 7.81635 18.8785 7.74651 18.9242 7.67566C18.6709 7.74546 18.4052 7.80813 18.1434 7.84661C17.6383 7.92317 17.0237 7.8839 16.5414 7.49093C16.0469 7.08799 15.9192 6.50799 15.991 5.99257C15.7543 6.05588 15.5006 6.11357 15.2447 6.148C14.7828 6.21191 14.18 6.21351 13.6852 5.85996C13.1513 5.47846 13.0198 4.90037 13.0368 4.42482C12.7609 4.54197 12.4491 4.66604 12.1186 4.75935C11.7282 4.87212 11.2371 4.92693 10.7646 4.71761C10.299 4.51131 10.0279 4.12969 9.89198 3.73541L9.78331 3.82556L9.7833 3.82557C8.82835 4.61784 7.90327 5.38532 7.04144 6.20727L7.04017 6.20848C6.76127 6.47354 6.57799 6.87674 6.36103 7.45653L6.36029 7.45847C6.31421 7.58086 6.31867 7.67064 6.34957 7.76092C6.38637 7.86843 6.48025 8.02538 6.68956 8.21324L6.69618 8.21929C6.80106 8.31513 6.92092 8.44412 7.01487 8.54522L7.0149 8.54525L7.01494 8.54529C7.04887 8.58181 7.07942 8.61469 7.10466 8.64105L8.12291 9.70447L7.05334 10.1393C7.18882 10.2328 7.32758 10.3624 7.43365 10.5424C7.69988 10.9942 7.58605 11.4416 7.52369 11.6372C7.46198 11.8308 7.3585 12.0471 7.27326 12.2253L7.25979 12.2535L7.25854 12.2561C7.04321 12.7034 6.8353 13.1552 6.70961 13.5916C6.58092 14.0383 6.57643 14.3446 6.63882 14.5411L6.6397 14.5439C6.74344 14.874 6.81769 15.0668 6.93626 15.2093C7.01739 15.3068 7.1716 15.4451 7.59091 15.4901C7.83873 15.5166 8.01345 15.4388 8.15405 15.3161C8.31935 15.1718 8.40756 14.9869 8.42732 14.9053C8.48869 14.6507 8.48437 14.346 8.44538 14.2221L8.44313 14.215L8.441 14.2079C8.42031 14.1386 8.40044 14.07 8.38052 14.0014C8.33819 13.8554 8.29566 13.7088 8.24473 13.5525C8.16881 13.3194 8.10346 13.1606 8.05577 13.078L8.00547 12.9908L7.97185 12.8903L7.97054 12.8864C7.96382 12.8664 7.95084 12.8276 7.93928 12.7882C7.92965 12.7554 7.90355 12.6655 7.89213 12.557C7.88648 12.5034 7.87866 12.3963 7.90081 12.2658C7.92208 12.1405 7.98914 11.89 8.221 11.68C8.47686 11.4482 8.7764 11.4048 8.98138 11.4205C9.16294 11.4345 9.29841 11.4937 9.36169 11.5244C9.49138 11.5874 9.58946 11.6672 9.63575 11.7061C9.69455 11.7554 9.75319 11.8106 9.80966 11.8666C9.92062 11.9765 10.0601 12.1259 10.2342 12.3209C11.2895 13.4279 11.4715 14.9765 10.9319 16.3628L10.9313 16.3643C10.7784 16.755 10.5625 17.1098 10.2505 17.3876C9.93095 17.6722 9.56515 17.8273 9.19341 17.896C8.53407 18.018 7.79787 17.8682 7.18535 17.7359C6.47301 18.74 6.18264 19.7969 6.20703 20.9389C10.7851 20.3637 14.9452 19.2524 18.3453 16.8475C18.4629 16.7644 18.5864 16.6749 18.7149 16.5819L18.7159 16.5811C19.0939 16.3073 19.5142 16.0028 19.9486 15.7408L19.9542 15.7375C19.9486 15.7249 19.9424 15.7114 19.9356 15.6971C19.3234 14.4144 18.353 13.2741 17.0995 12.2093L17.096 12.2063C16.7168 11.8812 16.3364 11.5781 15.8974 11.2284L15.8974 11.2283C15.6678 11.0454 15.4222 10.8497 15.1523 10.6314ZM20.25 7.26642C20.0811 7.69807 19.8648 8.09449 19.5881 8.47514C19.0398 9.22333 18.2172 9.5672 17.2239 9.72789C16.7747 9.80056 16.2907 9.83577 15.7813 9.85397C16.0362 10.0602 16.275 10.2505 16.5022 10.4315C16.6509 10.55 16.7946 10.6645 16.9346 10.7769C17.2171 11.0039 17.4845 11.2222 17.7469 11.4472C19.0718 12.5727 20.1479 13.8199 20.8384 15.267C21.0934 15.8029 21.0996 16.2219 20.4652 16.5971C20.0696 16.8357 19.7007 17.1029 19.3316 17.3702C19.1957 17.4686 19.0598 17.5671 18.9225 17.6641C15.2028 20.2951 10.6744 21.4254 5.84121 21.9906C5.46177 22.0344 5.28138 21.9273 5.25028 21.6203C5.08257 20.058 5.37629 18.5814 6.33699 17.2038C6.37394 17.1509 6.41187 17.098 6.4508 17.0453C6.67474 16.7384 6.89867 16.6507 7.37141 16.753L7.4537 16.7707C8.72422 17.0419 9.56153 17.1209 10 16C10.0866 15.7777 10.1485 15.5531 10.1857 15.3306C10.2786 14.7742 10.2173 14.2276 10.0014 13.7421L9.99758 13.7335C9.8993 13.5147 9.76953 13.3084 9.60825 13.1193C9.57362 13.0787 9.53754 13.0389 9.5 13C9.29375 12.7688 9.15341 12.6209 9.05959 12.5321L9.05527 12.528L9.03749 12.5114C8.83826 12.3281 8.87849 12.4484 8.92021 12.5731L8.92188 12.5781C9.02765 12.7614 9.12143 13.013 9.20282 13.2651L9.20804 13.2814C9.2165 13.3077 9.22482 13.3341 9.23301 13.3604C9.27425 13.4928 9.31203 13.623 9.34629 13.741C9.36499 13.8054 9.38264 13.8663 9.39923 13.9219C9.5112 14.2775 9.48632 14.7801 9.39923 15.1406C9.36043 15.3009 9.27995 15.488 9.15896 15.671L9.15814 15.6723C8.85221 16.1344 8.28807 16.5705 7.48438 16.4844C7.46635 16.4824 7.44853 16.4804 7.43089 16.4782C6.85412 16.4062 6.48148 16.1904 6.22814 15.9178C5.925 15.5916 5.79264 15.184 5.6857 14.8438C5.38713 13.9034 5.9283 12.7139 6.3575 11.8223C6.7556 10.9892 6.7556 10.9697 5.6857 10.7017C5.60148 10.6804 5.51671 10.6608 5.43157 10.6423C5.24425 10.6017 5.05513 10.5667 4.86601 10.5317C4.72847 10.5063 4.59093 10.4809 4.45408 10.4533C4.34886 10.4318 4.247 10.4023 4.13119 10.3689L4.13113 10.3689C4.08949 10.3569 4.04605 10.3443 4 10.3314C4.16016 10.1378 4.35345 10.0003 4.56664 9.89537L4.56824 9.89458C4.7925 9.78443 5.03873 9.71025 5.29156 9.64474C5.32911 9.63501 5.3668 9.62547 5.40459 9.61603L5.4243 9.61112L5.43803 9.60771L5.54408 9.58157C5.82873 9.51165 6.11525 9.44126 6.38238 9.33265C6.33109 9.27908 6.28566 9.23011 6.2436 9.18475L6.24358 9.18473C6.16322 9.09809 6.09509 9.02464 6.0216 8.95749C5.86885 8.8204 5.7385 8.67661 5.63333 8.52719C5.32736 8.09247 5.23466 7.61006 5.42445 7.10606C5.63594 6.54088 5.88476 5.92699 6.35128 5.48362C7.24026 4.63577 8.20429 3.83601 9.16758 3.03686L9.16759 3.03686C9.34809 2.88711 9.52856 2.73739 9.70851 2.58738C9.86511 2.45684 10.0213 2.32608 10.1768 2.19489C10.2348 2.14615 10.3178 2.11475 10.4275 2.07322C10.4823 2.05248 10.5438 2.02921 10.6122 2C10.6268 2.08011 10.6414 2.15126 10.6549 2.21696C10.6759 2.31908 10.6941 2.40802 10.7055 2.49696C10.7221 2.60449 10.7314 2.71271 10.7408 2.82084L10.7449 2.86817L10.7453 2.8723C10.7492 2.91718 10.7534 2.96202 10.7582 3.00677L10.7588 3.01213L10.7594 3.01687C10.7716 3.12706 10.7884 3.23663 10.8175 3.34472C10.9419 3.80271 11.2902 3.95862 11.8438 3.79784C12.2016 3.69714 12.5342 3.55316 12.8688 3.40833L12.9821 3.35934C13.0815 3.31649 13.1805 3.27259 13.2813 3.22711L13.3246 3.20753L13.3495 3.19625C13.4921 3.13145 13.6394 3.06328 13.7971 2.99025C13.9876 2.90201 14.1935 2.80667 14.4252 2.7016C14.3506 3.04265 14.3071 3.23266 14.2635 3.42268C14.2411 3.51336 14.2162 3.60403 14.1913 3.69471C14.1689 3.77649 14.1465 3.85826 14.1258 3.94004C14.0869 4.09402 14.0543 4.24801 14.0396 4.40199C13.9898 5.00614 14.3382 5.26437 15.1095 5.15718C15.4897 5.10623 15.8539 4.9954 16.2149 4.88552L16.2151 4.88546C16.2707 4.86853 16.3263 4.85161 16.3818 4.83495C16.4139 4.82533 16.4459 4.81579 16.4779 4.80638C16.516 4.79548 16.554 4.78432 16.5922 4.77285L16.6242 4.76319C16.7731 4.71792 16.9261 4.66795 17.0992 4.61141C17.2472 4.56304 17.41 4.50986 17.5976 4.45071C17.5451 4.58785 17.5049 4.69603 17.4706 4.78835L17.4705 4.78854C17.4317 4.89292 17.4005 4.97702 17.3675 5.05974C17.3249 5.17464 17.2766 5.28784 17.2284 5.40069L17.2284 5.4007C17.1922 5.48547 17.1561 5.57003 17.1226 5.65498C17.0702 5.78783 17.0242 5.92161 16.9942 6.05853C16.8698 6.63345 17.2617 6.96963 17.9957 6.85757C18.414 6.79637 18.8186 6.66867 19.2223 6.54129C19.3036 6.51561 19.385 6.48994 19.4664 6.46484C19.5276 6.44594 19.5889 6.42736 19.6503 6.40933C19.8189 6.3602 19.9825 6.30138 20.1833 6.22923L20.1835 6.22917C20.3012 6.18686 20.4317 6.13998 20.5834 6.08777C20.5008 6.51347 20.3923 6.90247 20.25 7.26642ZM11 11C11.5523 11 12 10.5523 12 10C12 9.44772 11.5523 9 11 9C10.4477 9 10 9.44772 10 10C10 10.5523 10.4477 11 11 11Z" fill="black"/>
</svg>
