<svg width="32" height="32" viewBox="0 0 32 32" fill="none" xmlns="http://www.w3.org/2000/svg">
<path fill-rule="evenodd" clip-rule="evenodd" d="M16 2.66663C10.4771 2.66663 5.99996 7.13679 5.99996 12.651V14.6895H5.33329C3.86053 14.6895 2.66663 15.8816 2.66663 17.352V21.3458C2.66663 22.8162 3.86053 24.0083 5.33329 24.0083H6.66663C7.40301 24.0083 7.99996 23.4123 7.99996 22.677V16.0208C7.99996 15.528 7.73183 15.0978 7.33329 14.8676V12.651C7.33329 7.87202 11.2135 3.99788 16 3.99788C20.7864 3.99788 24.6666 7.87202 24.6666 12.651V14.8676C24.2681 15.0978 24 15.528 24 16.0208V22.677C24 23.1425 24.2392 23.5521 24.6016 23.7901C24.3997 24.4873 23.7322 25.1736 22.6614 25.7467C21.576 26.3277 20.2349 26.6984 19.0425 26.7903C19.0445 26.7504 19.0455 26.7104 19.0455 26.6701C19.0455 25.1997 17.682 24.0076 15.9999 24.0076C14.3179 24.0076 12.9544 25.1997 12.9544 26.6701C12.9544 28.1406 14.3179 29.3326 15.9999 29.3326C17.0586 29.3326 17.9912 28.8604 18.5369 28.1437C20.0627 28.1325 21.8568 27.6878 23.2913 26.92C24.5039 26.271 25.6284 25.2922 25.9244 24.0083H26.6666C28.1394 24.0083 29.3333 22.8162 29.3333 21.3458V17.352C29.3333 15.8816 28.1394 14.6895 26.6666 14.6895H26V12.651C26 7.13679 21.5228 2.66663 16 2.66663ZM6.66663 16.0208H5.33329C4.59691 16.0208 3.99996 16.6168 3.99996 17.352V21.3458C3.99996 22.081 4.59691 22.677 5.33329 22.677H6.66663V16.0208ZM25.3333 22.677V16.0208H26.6666C27.403 16.0208 28 16.6168 28 17.352V21.3458C28 22.081 27.403 22.677 26.6666 22.677H25.3333ZM15.3435 17.0165C15.2293 15.7159 13.9876 14.6895 12.4763 14.6895C10.9513 14.6895 9.72186 15.7212 9.60912 17.0165L9.59998 17.2135L9.61216 17.336C9.6792 17.6568 9.99761 17.8991 10.3815 17.8991C10.8142 17.8991 11.1646 17.5915 11.1646 17.2122C11.1646 16.5825 11.742 16.062 12.4779 16.062C13.2 16.062 13.7881 16.5785 13.7881 17.2135V17.2973L13.6357 17.4305L13.008 17.9816L10.4181 20.2526C9.89858 20.7106 9.59998 21.3442 9.59998 21.9912C9.59998 22.3706 9.95038 22.6768 10.3815 22.6768H14.5711L14.7113 22.6661C15.0769 22.6076 15.3527 22.328 15.3527 21.9912C15.3527 21.6105 15.0023 21.3043 14.5711 21.3043H11.4404L11.4815 21.2617L11.5241 21.2204L12.0117 20.7944L12.9715 19.9531L13.3706 19.603L14.1202 18.9441L14.5925 18.5314L14.7235 18.4169L14.9794 18.1919L15.0175 18.16L15.1242 18.0655L15.2034 17.9829C15.2994 17.8671 15.3527 17.7273 15.3527 17.5809V17.2135L15.3435 17.0165ZM21.1683 14.7417C20.8939 14.6352 20.581 14.6951 20.3719 14.8908L20.3605 14.9014L20.1984 15.0545L20.1059 15.1397L19.8755 15.3567L19.7404 15.4832L19.4361 15.7694L19.2697 15.9251L18.9184 16.2566L18.55 16.6027L18.176 16.9528L17.6355 17.4613L17.0112 18.0471C16.5262 18.5063 16.2474 19.14 16.2474 19.7856C16.2474 20.165 16.5746 20.4725 16.977 20.4725H20.1571V21.9915C20.1571 22.3708 20.4842 22.677 20.8882 22.677C21.2906 22.677 21.6178 22.3695 21.6178 21.9901V20.4725H21.6704C22.0729 20.4725 22.4 20.165 22.4 19.7856C22.4 19.4062 22.0729 19.1001 21.6704 19.1001H21.6178V15.3753C21.6178 15.0984 21.44 14.8482 21.1683 14.7417ZM18.0451 19.0161L20.1571 17.0326V19.1H17.9655C17.9911 19.0707 18.0167 19.0428 18.0451 19.0161ZM17.7122 26.6701C17.7122 27.2447 17.1175 28.0014 15.9999 28.0014C14.8824 28.0014 14.2877 27.2447 14.2877 26.6701C14.2877 26.0955 14.8824 25.3389 15.9999 25.3389C17.1175 25.3389 17.7122 26.0955 17.7122 26.6701Z" fill="#95A3B0"/>
</svg>
