<svg width="32" height="32" viewBox="0 0 32 32" fill="none" xmlns="http://www.w3.org/2000/svg">
<path fill-rule="evenodd" clip-rule="evenodd" d="M9.56454 27.4387C11.8445 28.853 14.0045 29.3333 15.8979 29.3333C19.8979 29.3333 22.6579 27.1852 22.6845 27.1585C25.0312 25.344 26.3512 23.1558 26.6179 20.6341C27.1231 15.8841 23.6638 11.7312 23.5124 11.5495L23.5112 11.5481C19.3219 6.39662 19.5563 3.5362 19.5643 3.4385C19.5645 3.43701 19.5645 3.43616 19.5645 3.43596C19.6045 3.16912 19.4845 2.91561 19.2579 2.76885C19.0312 2.62208 18.7379 2.63543 18.5245 2.79553C12.4445 7.19848 12.1512 13.9764 12.2712 16.4714C10.6045 15.7375 9.47121 13.2025 9.15121 12.1618C9.07121 11.9083 8.85787 11.7348 8.60454 11.7082C8.35121 11.6548 8.09787 11.7749 7.95121 11.9884C5.73787 15.2705 4.92454 18.4327 5.52454 21.3546C6.33787 25.3039 9.41787 27.3453 9.56454 27.4387ZM6.83121 21.0878C6.37787 18.8463 6.89787 16.4046 8.37787 13.8296C9.09787 15.3906 10.5912 17.8456 12.9645 18.0057C13.1645 18.0191 13.3645 17.939 13.4979 17.7922C13.6312 17.6455 13.6979 17.4453 13.6712 17.2452C13.6579 17.1652 12.6712 9.60009 18.3379 4.65011C18.6045 6.14444 19.5245 8.77287 22.4845 12.4153C22.4855 12.4167 22.4905 12.423 22.4992 12.434C22.7354 12.7312 25.7089 16.4737 25.2845 20.5141C25.0579 22.6488 23.9112 24.5301 21.8579 26.1178C21.8559 26.1193 21.8534 26.1211 21.8506 26.1233C21.7584 26.1928 21.2223 26.5971 20.3446 27.0154C21.0612 26.2399 21.4652 25.3628 21.5379 24.3967C21.7088 22.2391 20.1555 20.4707 20.0226 20.3194C20.0208 20.3173 20.0192 20.3154 20.0179 20.3139C18.3112 18.6462 18.3245 17.4587 18.3245 17.4587C18.3512 17.2052 18.2179 16.965 18.0045 16.8316C17.7779 16.6982 17.5112 16.7115 17.2979 16.845C14.7912 18.4594 14.2579 20.821 14.1912 22.2085C13.7779 21.8216 13.4979 21.2212 13.4045 20.9544C13.3245 20.7409 13.1379 20.5808 12.9112 20.5274C12.6845 20.4874 12.4445 20.5541 12.2845 20.7276C11.2445 21.835 10.7779 23.0091 10.8979 24.2366C11.0435 25.7716 12.0728 26.9246 12.6577 27.4638C11.8878 27.1973 11.0896 26.8239 10.2712 26.3179C10.2445 26.3046 7.52454 24.4901 6.83121 21.0878ZM12.2312 24.1032C12.1779 23.5428 12.3245 22.9824 12.6579 22.422C13.0845 23.0891 13.8045 23.863 14.8445 23.9164C15.0445 23.943 15.2445 23.8496 15.3779 23.7029C15.5112 23.5561 15.5645 23.356 15.5379 23.1558C15.5376 23.1532 15.5371 23.1493 15.5365 23.1443C15.5097 22.9227 15.2102 20.4452 17.2179 18.5928C17.4712 19.2733 17.9912 20.2072 19.0579 21.2479C19.0588 21.2498 19.066 21.2587 19.0785 21.2743C19.243 21.4788 20.3285 22.8276 20.2045 24.3033C20.1379 25.1572 19.6712 25.9444 18.8579 26.5982C18.8552 26.5998 18.8511 26.6025 18.8456 26.606C18.6282 26.7462 16.2107 28.3053 13.8312 26.7049C13.8306 26.7043 13.8275 26.7018 13.8219 26.6974C13.6966 26.5978 12.3589 25.5339 12.2312 24.1032Z" fill="#95A3B0"/>
</svg>
