<svg width="24" height="24" viewBox="0 0 24 24" fill="none" xmlns="http://www.w3.org/2000/svg">
<path fill-rule="evenodd" clip-rule="evenodd" d="M7 3H17C17.5523 3 18 3.44772 18 4V20C18 20.5523 17.5523 21 17 21H7C6.44772 21 6 20.5523 6 20V4C6 3.44772 6.44772 3 7 3ZM5 4C5 2.89543 5.89543 2 7 2H17C18.1046 2 19 2.89543 19 4V20C19 21.1046 18.1046 22 17 22H7C5.89543 22 5 21.1046 5 20V4ZM16.5 4.49999C16.7761 4.49999 17 4.72351 17 4.99922V7.9946C17 8.27031 16.7761 8.49383 16.5 8.49383C16.2239 8.49383 16 8.27031 16 7.9946V6.22352L13.8668 8.35673C13.6717 8.55184 13.3553 8.55184 13.1602 8.35673C12.9651 8.16161 12.9651 7.84527 13.1602 7.65016L15.3119 5.49845H13.5C13.2239 5.49845 13 5.27494 13 4.99922C13 4.72351 13.2239 4.49999 13.5 4.49999H16.5ZM7.46875 4.50001C7.19261 4.50001 6.96875 4.72352 6.96875 4.99924V7.99461C6.96875 8.27033 7.19261 8.49384 7.46875 8.49384C7.74489 8.49384 7.96875 8.27033 7.96875 7.99461V6.22354L10.1019 8.35674C10.2971 8.55185 10.6134 8.55185 10.8085 8.35674C11.0036 8.16163 11.0036 7.84529 10.8085 7.65018L8.6568 5.49847H10.4688C10.7449 5.49847 10.9688 5.27495 10.9688 4.99924C10.9688 4.72352 10.7449 4.50001 10.4688 4.50001H7.46875ZM17 19.1659C17 19.4416 16.7761 19.6652 16.5 19.6652H13.5C13.2239 19.6652 13 19.4416 13 19.1659C13 18.8902 13.2239 18.6667 13.5 18.6667H15.312L13.1602 16.515C12.9651 16.3199 12.9651 16.0035 13.1602 15.8084C13.3554 15.6133 13.6717 15.6133 13.8668 15.8084L16 17.9416V16.1705C16 15.8948 16.2239 15.6713 16.5 15.6713C16.7761 15.6713 17 15.8948 17 16.1705V19.1659ZM7.46875 19.6652C7.19261 19.6652 6.96875 19.4417 6.96875 19.1659V16.1706C6.96875 15.8948 7.19261 15.6713 7.46875 15.6713C7.74489 15.6713 7.96875 15.8948 7.96875 16.1706L7.96875 17.9416L10.102 15.8084C10.2971 15.6133 10.6134 15.6133 10.8085 15.8084C11.0036 16.0035 11.0036 16.3199 10.8085 16.515L8.6568 18.6667H10.4688C10.7449 18.6667 10.9688 18.8902 10.9688 19.1659C10.9688 19.4417 10.7449 19.6652 10.4688 19.6652H7.46875Z" fill="#95A3B0"/>
</svg>
