<svg width="24" height="24" viewBox="0 0 24 24" fill="none" xmlns="http://www.w3.org/2000/svg">
<path fill-rule="evenodd" clip-rule="evenodd" d="M7.52694 7.24375C7.77495 4.83738 9.70394 3 12 3C14.2961 3 16.2251 4.83738 16.4731 7.24375H7.52694ZM6.52268 7.24375C6.77541 4.3241 9.1097 2 12 2C14.8903 2 17.2246 4.3241 17.4773 7.24375H19C20.1046 7.24375 21 8.13918 21 9.24375V20C21 21.1046 20.1046 22 19 22H5C3.89543 22 3 21.1046 3 20V9.24375C3 8.13918 3.89543 7.24375 5 7.24375H6.52268ZM4 9.24375C4 8.69146 4.44772 8.24375 5 8.24375H19C19.5523 8.24375 20 8.69146 20 9.24375V20C20 20.5523 19.5523 21 19 21H5C4.44772 21 4 20.5523 4 20V9.24375ZM12 13.9381C12.551 13.9381 13 13.4904 13 12.9354C13 12.3805 12.551 11.9328 12 11.9328C11.449 11.9328 11 12.3805 11 12.9354C11 13.4904 11.449 13.9381 12 13.9381ZM13 14.6702C13.5978 14.3239 14 13.6767 14 12.9354C14 11.8294 13.1046 10.9328 12 10.9328C10.8954 10.9328 10 11.8294 10 12.9354C10 13.6767 10.4022 14.3239 11 14.6702V15.0949V17.3109V18.3109H12H13V17.3109V15.0949V14.6702Z" fill="#51A1FF"/>
</svg>
