<svg width="24" height="24" viewBox="0 0 24 24" fill="none" xmlns="http://www.w3.org/2000/svg">
<g clip-path="url(#clip0)">
<path fill-rule="evenodd" clip-rule="evenodd" d="M13.5809 5.94976C15.5335 7.90238 15.5335 11.0682 13.5809 13.0208C11.6283 14.9734 8.46243 14.9734 6.50981 13.0208C4.55718 11.0682 4.55718 7.90238 6.50981 5.94976C8.46243 3.99714 11.6283 3.99714 13.5809 5.94976ZM14.627 13.3599C16.6251 11.0025 16.5121 7.46674 14.288 5.24265C11.9448 2.8995 8.14584 2.8995 5.8027 5.24265C3.45955 7.5858 3.45955 11.3848 5.8027 13.7279C8.02678 15.952 11.5625 16.065 13.9199 14.067L19.2405 19.3875C19.4358 19.5828 19.7523 19.5828 19.9476 19.3875C20.1429 19.1923 20.1429 18.8757 19.9476 18.6804L14.627 13.3599Z" fill="#95A3B0"/>
</g>
<defs>
<clipPath id="clip0">
<rect width="24" height="24" fill="white"/>
</clipPath>
</defs>
</svg>
